C:\Users\Anant\eclipse-workspace\grpcDemo\src\main\java\com\yrrhelp\grpc\User.java
C:\Users\Anant\eclipse-workspace\grpcDemo\src\main\java\io\grpc\examples\routeguide\User.java
C:\Users\Anant\eclipse-workspace\grpcDemo\src\main\java\User.java
C:\Users\Anant\eclipse-workspace\grpcDemo\src\main\java\com\yrrhelp\grpc\userGrpc.java
